[
  "file-explorer",
  "global-search",
  "switcher",
  "graph",
  "backlink",
  "outgoing-link",
  "tag-pane",
  "page-preview",
  "templates",
  "note-composer",
  "command-palette",
  "markdown-importer",
  "outline",
  "word-count",
  "open-with-default-app",
  "workspaces",
  "file-recovery"
]