{
  "commitMessage": "vault backup: {{date}}",
  "commitDateFormat": "YYYY-MM-DD HH:mm:ss",
  "autoSaveInterval": 15,
  "autoPullInterval": 30,
  "autoPullOnBoot": true,
  "disablePush": false,
  "pullBeforePush": true,
  "disablePopups": false,
  "listChangedFilesInMessageBody": false,
  "showStatusBar": true
}